[
  {
    "id": "1c845428-d94d-4417-83a0-a2ea19969e05",
    "data": [
      {
        "text": "location of my package?",
        "userDefined": false
      }
    ],
    "isTemplate": false,
    "count": 0,
    "updated": 0
  },
  {
    "id": "8a25c58f-afc1-4498-9230-c8a7dca441a3",
    "data": [
      {
        "text": "order location?",
        "userDefined": false
      }
    ],
    "isTemplate": false,
    "count": 0,
    "updated": 0
  },
  {
    "id": "86265505-6b5c-45bb-9f14-06b2d59b4b98",
    "data": [
      {
        "text": "when will my order arrive?",
        "userDefined": false
      }
    ],
    "isTemplate": false,
    "count": 0,
    "updated": 0
  },
  {
    "id": "fb4ece51-9a65-4120-b385-d147d8908658",
    "data": [
      {
        "text": "check on my order?",
        "userDefined": false
      }
    ],
    "isTemplate": false,
    "count": 0,
    "updated": 0
  },
  {
    "id": "ba6168ab-1c53-41b2-97d6-0d8f29d14481",
    "data": [
      {
        "text": "where is my shipment?",
        "userDefined": false
      }
    ],
    "isTemplate": false,
    "count": 0,
    "updated": 0
  },
  {
    "id": "10340eb5-5ee5-4cb2-a48c-8b1c2b789997",
    "data": [
      {
        "text": "where is my parcel?",
        "userDefined": false
      }
    ],
    "isTemplate": false,
    "count": 0,
    "updated": 0
  },
  {
    "id": "ce8786f5-a0e9-494e-909a-c7bd63c1f388",
    "data": [
      {
        "text": "where is my courier?",
        "userDefined": false
      }
    ],
    "isTemplate": false,
    "count": 0,
    "updated": 0
  },
  {
    "id": "29f5cd66-057a-4a1c-89fa-76ce08b2f1c4",
    "data": [
      {
        "text": "what\u0027s the estimate for my package arrival?",
        "userDefined": false
      }
    ],
    "isTemplate": false,
    "count": 0,
    "updated": 0
  },
  {
    "id": "c7a6fad0-8e13-427e-825d-b551ce84aae5",
    "data": [
      {
        "text": "when will my order reach me?",
        "userDefined": false
      }
    ],
    "isTemplate": false,
    "count": 0,
    "updated": 0
  },
  {
    "id": "00edf822-cfdb-4146-922e-d5b98c83d4a2",
    "data": [
      {
        "text": "when will the package reach me?",
        "userDefined": false
      }
    ],
    "isTemplate": false,
    "count": 0,
    "updated": 0
  },
  {
    "id": "23142c94-4270-4d92-90a6-f4586fb4a13f",
    "data": [
      {
        "text": "where is my order?",
        "userDefined": false
      }
    ],
    "isTemplate": false,
    "count": 0,
    "updated": 0
  },
  {
    "id": "ffa74e0d-5768-4f71-8a01-132f39a84000",
    "data": [
      {
        "text": "where is my package?",
        "userDefined": false
      }
    ],
    "isTemplate": false,
    "count": 0,
    "updated": 0
  },
  {
    "id": "a0d5d8a9-95ac-4fd7-abdc-a3dd65fd42bb",
    "data": [
      {
        "text": "can you check where is my package?",
        "userDefined": false
      }
    ],
    "isTemplate": false,
    "count": 0,
    "updated": 0
  },
  {
    "id": "36171ba0-5d42-4cc6-a552-cbf21b069e98",
    "data": [
      {
        "text": "can you tell where is my ",
        "userDefined": false
      },
      {
        "text": "package",
        "meta": "@sys.ignore",
        "userDefined": true
      },
      {
        "text": "?",
        "userDefined": false
      }
    ],
    "isTemplate": false,
    "count": 0,
    "updated": 0
  }
]