{
  "id": "c943fcf2-086b-499f-95b3-224fbb08ef0c",
  "name": "Initial Intent",
  "auto": true,
  "contexts": [],
  "responses": [
    {
      "resetContexts": false,
      "affectedContexts": [
        {
          "name": "select-mail",
          "parameters": {},
          "lifespan": 5
        }
      ],
      "parameters": [],
      "messages": [
        {
          "type": 0,
          "lang": "en",
          "condition": "",
          "speech": "I have found 2 FedEx shipments. Please choose the one to check status:\n\nFirst package: from - New Delhi, To - Chennai, sent on 19 Feb 2020\nSecond package: from - Hyderabad, To - Chennai, sent on 11 Feb 2020"
        }
      ],
      "defaultResponsePlatforms": {},
      "speech": []
    }
  ],
  "priority": 500000,
  "webhookUsed": true,
  "webhookForSlotFilling": false,
  "fallbackIntent": false,
  "events": [],
  "conditionalResponses": [],
  "condition": "",
  "conditionalFollowupEvents": []
}